{
  "sharedDir": "shared",
  "dependenciesDir": "extern",
  "info": {
    "name": "Drink Water",
    "id": "DrinkWater",
    "version": "0.1.0",
    "url": null,
    "additionalData": {
      "overrideSoName": "libDrinkWater.so"
    }
  },
  "dependencies": [
    {
      "id": "beatsaber-hook",
      "versionRange": "=2.3.2",
      "additionalData": {
        "extraFiles": [
          "src/inline-hook"
        ]
      }
    },
    {
      "id": "modloader",
      "versionRange": "=1.2.3",
      "additionalData": {}
    },
    {
      "id": "custom-types",
      "versionRange": "*",
      "additionalData": {}
    },
    {
      "id": "questui",
      "versionRange": "^0.11.1",
      "additionalData": {}
    },
    {
      "id": "codegen",
      "versionRange": "^0.14.0",
      "additionalData": {}
    }
  ],
  "additionalData": {}
}